{
    "page": 1,
    "perPage": 25,
    "totalResults": 2433,
    "totalPages": 98,
    "results": [
        {
            "name": "<p>\n\t\u00a0\n<\/p>\n\n<p style=\"background-color:#1e2429;color:#eeeeee;font-size:14px;\">\n\tThis small component makes it possible to play and stop animations for models. Various settings are available:\n<\/p>\n\n<ul style=\"background-color:#1e2429;color:#eeeeee;font-size:14px;\">\n\t<li>\n\t\t<strong>AutoPlay<\/strong>: Actually self-explanatory. If this option is activated, the animation is played directly at startup.\n\t<\/li>\n\t<li>\n\t\t<strong>Loop<\/strong>: If activated, the animation is played in a loop.\n\t<\/li>\n\t<li>\n\t\t<strong>Name<\/strong>: The name of the animation.\n\t<\/li>\n\t<li>\n\t\t<strong>Speed<\/strong>: The speed of the animation.\n\t<\/li>\n\t<li>\n\t\t<strong>Bleed<span>\u00a0<\/span><\/strong>(255): Animation bleeding.\n\t<\/li>\n<\/ul>\n\n<p style=\"background-color:#1e2429;color:#eeeeee;font-size:14px;\">\n\tIn addition, there are two inputs for the Nodegraph: \"<strong>PlayAnimation<\/strong>\" and \"<strong>StopAnimation<\/strong>\". These functions can also be called via C++.\n<\/p>\n\n<p>\n\t\u00a0\n<\/p>\n",
            "id": 381,
            "title": "Animator",
            "author": {
                "name": "Andy90",
                "id": 27720,
                "photoUrl": "\/\/leadwerksstorage.s3.us-east-2.amazonaws.com\/monthly_2023_09\/Logo.png.9807d7089a11ef9e9aa8ae108b526058.png",
                "profileUrl": "https:\/\/www.leadwerks.com\/community\/profile\/27720-andy90\/"
            },
            "category": 101
        },
        {
            "name": "<p>\n\tThis machine boasts an automatic turret and exceptional adaptability, ready to tackle diverse battlefield demands. It is able to perform tasks from reconnaissance and surveillance to offensive and defensive operations.\n<\/p>\n\n<p>\n\tBeyond combat, the D-21-11 robot shines as a vital logistical asset. Its modular design allows for the seamless integration of detachable cargo units, enabling the safe and efficient delivery of ammunition and provisions to troops even in the most perilous zones.\n<\/p>\n",
            "id": 382,
            "title": "D-21-11 Robot",
            "author": {
                "name": "Josh",
                "id": 1,
                "photoUrl": "\/\/leadwerksstorage.s3.us-east-2.amazonaws.com\/monthly_2025_02\/Josh_Klint.webp.f1ce2f18c3a16edf14de51bd58cc2039.webp",
                "profileUrl": "https:\/\/www.leadwerks.com\/community\/profile\/1-josh\/"
            },
            "category": 103
        },
        {
            "name": "<p>\n\tShip cannon\n<\/p>\n",
            "id": 384,
            "title": "Ship cannon",
            "author": {
                "name": "Josh",
                "id": 1,
                "photoUrl": "\/\/leadwerksstorage.s3.us-east-2.amazonaws.com\/monthly_2025_02\/Josh_Klint.webp.f1ce2f18c3a16edf14de51bd58cc2039.webp",
                "profileUrl": "https:\/\/www.leadwerks.com\/community\/profile\/1-josh\/"
            },
            "category": 103
        },
        {
            "name": "<p>\n\t\u00a0\n<\/p>\n\n<p>\n\tBlack Dragon Rigged and Game-Ready\n<\/p>\n\n<p>\n\t\u00a0\n<\/p>\n",
            "id": 385,
            "title": "Black Dragon",
            "author": {
                "name": "Josh",
                "id": 1,
                "photoUrl": "\/\/leadwerksstorage.s3.us-east-2.amazonaws.com\/monthly_2025_02\/Josh_Klint.webp.f1ce2f18c3a16edf14de51bd58cc2039.webp",
                "profileUrl": "https:\/\/www.leadwerks.com\/community\/profile\/1-josh\/"
            },
            "category": 105
        },
        {
            "name": "<p>\n\tThis <a href=\"https:\/\/unwrap3d.com\" rel=\"external nofollow\">Unwrap3D<\/a> plugin will provide export support for Ultra and Leadwerks MDL format.\n<\/p>\n",
            "id": 386,
            "title": "Unwrap 3D export plugins",
            "author": {
                "name": "Josh",
                "id": 1,
                "photoUrl": "\/\/leadwerksstorage.s3.us-east-2.amazonaws.com\/monthly_2025_02\/Josh_Klint.webp.f1ce2f18c3a16edf14de51bd58cc2039.webp",
                "profileUrl": "https:\/\/www.leadwerks.com\/community\/profile\/1-josh\/"
            },
            "category": 104
        },
        {
            "name": "<p>\n\t<span style=\"font-size:18px;\"><span style=\"color:#e67e22;\"><strong>CC Attribution Yue<\/strong><\/span><\/span>\n<\/p>\n",
            "id": 387,
            "title": "Sky Box  Realism",
            "author": {
                "name": "Yue",
                "id": 23564,
                "photoUrl": "\/\/leadwerksstorage.s3.us-east-2.amazonaws.com\/monthly_2025_02\/Yue.png.f4f1234c4999b9db6a3a0f93e6b62758.png",
                "profileUrl": "https:\/\/www.leadwerks.com\/community\/profile\/23564-yue\/"
            },
            "category": 102
        },
        {
            "name": "<p>\n\tSimple kit to create vents for buildings. Its also possible to enter this vents with your player model.\u00a0\n<\/p>\n",
            "id": 388,
            "title": "Vent construction kit",
            "author": {
                "name": "Andy90",
                "id": 27720,
                "photoUrl": "\/\/leadwerksstorage.s3.us-east-2.amazonaws.com\/monthly_2023_09\/Logo.png.9807d7089a11ef9e9aa8ae108b526058.png",
                "profileUrl": "https:\/\/www.leadwerks.com\/community\/profile\/27720-andy90\/"
            },
            "category": 106
        },
        {
            "name": "<p>\n\t\u00a0\n<\/p>\n\n<p style=\"background-color:#1e2429;color:#eeeeee;font-size:14px;\">\n\tHere's a little addon for Blender 4.0 that will export any selected object as a MESH collider for use in Ultra.\u00a0 It may work with other versions of blender but I've not tested it.\n<\/p>\n\n<p style=\"background-color:#1e2429;color:#eeeeee;font-size:14px;\">\n\tThere are no options for the export process.\u00a0 By default Z is up in Blender so upon export the vertex y and z positions are swapped so that Y is up in Ultra.\u00a0 I could probably add an option to toggle this if it's needed.\n<\/p>\n\n<p style=\"background-color:#1e2429;color:#eeeeee;font-size:14px;\">\n\tAny suggestions for improvements are welcome!\n<\/p>\n\n<p style=\"background-color:#1e2429;color:#eeeeee;font-size:14px;\">\n\tTo Install:\n<\/p>\n\n<ol style=\"background-color:#1e2429;color:#eeeeee;font-size:14px;\">\n\t<li>\n\t\tExtract the downloaded zip file and move\/copy the folder \"io_mesh_collider\" to Blender 4.0's addon folder.\u00a0 (\"Blender\/4.0\/scripts\/addons\")\n\t<\/li>\n\t<li>\n\t\tLaunch Blender and navigate to \"Edit-&gt;Preferences\"\n\t<\/li>\n\t<li>\n\t\tClick the add-ons tab look for Import-Export: Ultra Engine Collider and enable it\n\t<\/li>\n<\/ol>\n\n<p>\n\t\u00a0\n<\/p>\n",
            "id": 389,
            "title": "Blender 4.0 Addon : Mesh Collider Exporter",
            "author": {
                "name": "SpiderPig",
                "id": 243,
                "photoUrl": "\/\/leadwerksstorage.s3.us-east-2.amazonaws.com\/monthly_2022_07\/SpiderPig_Avatar.jpg.eb54e3c036ada45b0b6d97107d65319c.jpg",
                "profileUrl": "https:\/\/www.leadwerks.com\/community\/profile\/243-spiderpig\/"
            },
            "category": 104
        },
        {
            "name": "<p>\n\t\u00a0\n<\/p>\n\n<p style=\"background-color:#1e2429;color:#eeeeee;font-size:14px;\">\n\tTo Install:\n<\/p>\n\n<ol style=\"background-color:#1e2429;color:#eeeeee;font-size:14px;\">\n\t<li>\n\t\tExtract the downloaded zip file and move\/copy the folder \"io_mesh_ultra\" to Blender 4.0's addon folder.\u00a0 (\"Blender\/4.0\/scripts\/addons\")\n\t<\/li>\n\t<li>\n\t\tLaunch Blender and navigate to \"Edit-&gt;Preferences\"\n\t<\/li>\n\t<li>\n\t\tClick the add-ons tab look for Import-Export: Ultra Engine MDL and enable it\n\t<\/li>\n<\/ol>\n\n<p>\n\tTo discuss bugs and further development please comment on the forum here :\u00a0\n<\/p>\n<iframe allowfullscreen=\"\" data-embedauthorid=\"243\" data-embedcontent=\"\" data-embedid=\"embed2286272722\" style=\"height:392px;max-width:500px;\" src=\"https:\/\/www.leadwerks.com\/community\/topic\/64018-blender-addon-export-mdl-30\/?do=embed\"><\/iframe>\n\n<p>\n\t\u00a0\n<\/p>\n\n<p style=\"background-color:#1e2429;color:#eeeeee;font-size:14px;\">\n\tThese are the current default settings:\n<\/p>\n\n<p style=\"background-color:#1e2429;color:#eeeeee;font-size:14px;\">\n\t<a href=\"https:\/\/leadwerksstorage.s3.us-east-2.amazonaws.com\/monthly_2024_04\/MDL_Settings.png.4fe2f245ccdaa59512d7ae66a326b949.png\" rel=\"external nofollow\" style=\"background-color:transparent;\" title=\"Enlarge image\"><img alt=\"MDL_Settings.png.4fe2f245ccdaa59512d7ae66a326b949.png\" data-fileid=\"20192\" data-ratio=\"71.67\" style=\"border-style:none;vertical-align:middle;height:auto;\" width=\"233\" src=\"\/\/leadwerksstorage.s3.us-east-2.amazonaws.com\/monthly_2024_04\/MDL_Settings.png.4fe2f245ccdaa59512d7ae66a326b949.png\"><\/a>\n<\/p>\n\n<ul style=\"background-color:#1e2429;color:#eeeeee;font-size:14px;\">\n\t<li>\n\t\tExport Position\n\t\t<ul>\n\t\t\t<li>\n\t\t\t\tFalse (Default) - will not export the objects position.\u00a0 This will be exported as\u00a00,0,0\n\t\t\t<\/li>\n\t\t\t<li>\n\t\t\t\tTrue - will export position\n\t\t\t<\/li>\n\t\t<\/ul>\n\t<\/li>\n\t<li>\n\t\tUse Object Name\n\t\t<ul>\n\t\t\t<li>\n\t\t\t\tFalse (Default) - Uses the file name written in\u00a0the file save dialog to name the exported MDL file\n\t\t\t<\/li>\n\t\t\t<li>\n\t\t\t\tTrue - Uses the object name in blender as the MDL file name\n\t\t\t<\/li>\n\t\t<\/ul>\n\t<\/li>\n\t<li>\n\t\tExport LODS\n\t\t<ul>\n\t\t\t<li>\n\t\t\t\tTrue (Default) - will search the scene (selected objects or not) for any LOD objects\n\t\t\t\t<ul>\n\t\t\t\t\t<li>\n\t\t\t\t\t\tE.g.\u00a0 If you select a model named \"Cube\", it will search for and export\u00a0objects that\u00a0are named;\n\t\t\t\t\t<\/li>\n\t\t\t\t\t<li>\n\t\t\t\t\t\t\"Cube_LOD1\"\n\t\t\t\t\t<\/li>\n\t\t\t\t\t<li>\n\t\t\t\t\t\t\"Cube_LOD2\"\n\t\t\t\t\t<\/li>\n\t\t\t\t\t<li>\n\t\t\t\t\t\tetc...\n\t\t\t\t\t<\/li>\n\t\t\t\t<\/ul>\n\t\t\t<\/li>\n\t\t\t<li>\n\t\t\t\tFalse - Does not export LODS\n\t\t\t<\/li>\n\t\t<\/ul>\n\t<\/li>\n\t<li>\n\t\tExport Collider\n\t\t<ul>\n\t\t\t<li>\n\t\t\t\tTrue (Default) - Searches the scene for an object with a suffix of _PHY\n\t\t\t\t<ul>\n\t\t\t\t\t<li>\n\t\t\t\t\t\tE.g.\u00a0 If you select a model named \"Cube\", it will search for an object named \"Cube_PHY\" and export that mesh as a collider file.\u00a0 (Embedded colliders coming soon)\n\t\t\t\t\t<\/li>\n\t\t\t\t<\/ul>\n\t\t\t<\/li>\n\t\t\t<li>\n\t\t\t\tFalse - Does not export Collider\n\t\t\t<\/li>\n\t\t<\/ul>\n\t<\/li>\n\t<li>\n\t\tConvert Textures\n\t\t<ul>\n\t\t\t<li>\n\t\t\t\tThis is a WIP.\u00a0 It should work, but it is slow sometimes depending on how many and how large your textures are.\u00a0 So if blender hangs and goes non responsive for a few minutes that could be why.\n\t\t\t<\/li>\n\t\t\t<li>\n\t\t\t\tFalse (Default) - will copy textures that the blender materials use to the target directory where you have specified to save the MDL file too.\n\t\t\t<\/li>\n\t\t\t<li>\n\t\t\t\tTrue - Will first convert any non DDS files to DDS with the correct compression, saving them in the same folder as the source image, before then copying the new DDS file over to the target directory\u00a0where you have specified to save the MDL file too.\n\t\t\t<\/li>\n\t\t\t<li>\n\t\t\t\tAll DDS file are renamed to the material name appended with the appropriate slot name\n\t\t\t\t<ul>\n\t\t\t\t\t<li>\n\t\t\t\t\t\tE.g. If the material name is \"Cube\"\n\t\t\t\t\t<\/li>\n\t\t\t\t\t<li>\n\t\t\t\t\t\tDiffuse textures will be named \"Cube_DIFF.dds\"\n\t\t\t\t\t<\/li>\n\t\t\t\t\t<li>\n\t\t\t\t\t\tNormal textures will be named \"Cube_NORM.dds\"\n\t\t\t\t\t<\/li>\n\t\t\t\t\t<li>\n\t\t\t\t\t\tAmbient occlusion, roughness and metalness maps will be combined into one DDS file name \"Cube_AO_ROUGH_METAL.dds\"\n\t\t\t\t\t<\/li>\n\t\t\t\t<\/ul>\n\t\t\t<\/li>\n\t\t<\/ul>\n\t<\/li>\n<\/ul>\n\n<p style=\"background-color:#1e2429;color:#eeeeee;font-size:14px;\">\n\tUltimate the only object you need to select when exporting is the root object.\u00a0 E.g. the LOD0 object.\u00a0 Doesn't currently work if the root object is named LOD0 though.\u00a0 Has to be \"Cube\" not \"Cube_LOD0\".\u00a0 I can add support for this if it's needed.\n<\/p>\n\n<p style=\"background-color:#1e2429;color:#eeeeee;font-size:14px;\">\n\tYou can also batch export be default.\u00a0 All you need to do is select all the root objects that you want to export and it will export them all to the same folder.\u00a0 Best to set \"Use Object Name\" to true when batch exporting other wise the file names will conflict and each selected object will just overwrite the previous one.\n<\/p>\n\n<p style=\"background-color:#1e2429;color:#eeeeee;font-size:14px;\">\n\tMaterials are exported to the same directory as the specified MDL path.\u00a0 Here is the only node setup that will be able to collect and export the textures.\u00a0 Please excuse the low resolution image - not sure how I can get blender to render to an image larger than the screen!\u00a0 I'll add some better images later.\n<\/p>\n\n<p style=\"background-color:#1e2429;color:#eeeeee;font-size:14px;\">\n\tYou don't need all of these images loaded to export the material correctly.\u00a0 From top to bottom on the left hand side, DIFFUSE, AO, METAL, ROUGH &amp; NORM.\n<\/p>\n\n<p style=\"background-color:#1e2429;color:#eeeeee;font-size:14px;\">\n\t<a class=\"ipsAttachLink ipsAttachLink_image\" href=\"\/\/leadwerksstorage.s3.us-east-2.amazonaws.com\/monthly_2024_06\/MaterialNode_Setup.png.69cf95e4863909ca9767050b710bbf5c.png\" data-fileid=\"20663\" data-fileext=\"png\" rel=\"\"><img class=\"ipsImage ipsImage_thumbnailed\" data-fileid=\"20663\" data-ratio=\"121.95\" width=\"615\" alt=\"MaterialNode_Setup.thumb.png.8eae6427caa7e0e64136b00d492b24f0.png\" src=\"\/\/leadwerksstorage.s3.us-east-2.amazonaws.com\/monthly_2024_06\/MaterialNode_Setup.thumb.png.8eae6427caa7e0e64136b00d492b24f0.png\"><\/a>\n<\/p>\n",
            "id": 390,
            "title": "Blender 4.0 Addon : MDL 3.0 Exporter",
            "author": {
                "name": "SpiderPig",
                "id": 243,
                "photoUrl": "\/\/leadwerksstorage.s3.us-east-2.amazonaws.com\/monthly_2022_07\/SpiderPig_Avatar.jpg.eb54e3c036ada45b0b6d97107d65319c.jpg",
                "profileUrl": "https:\/\/www.leadwerks.com\/community\/profile\/243-spiderpig\/"
            },
            "category": 104
        },
        {
            "name": "<p>\n\tThis extension adds generative AI integration for generating new textures. A free OpenAI API key is required to use.\n<\/p>\n",
            "id": 391,
            "title": "AI Texture Generation",
            "author": {
                "name": "Josh",
                "id": 1,
                "photoUrl": "\/\/leadwerksstorage.s3.us-east-2.amazonaws.com\/monthly_2025_02\/Josh_Klint.webp.f1ce2f18c3a16edf14de51bd58cc2039.webp",
                "profileUrl": "https:\/\/www.leadwerks.com\/community\/profile\/1-josh\/"
            },
            "category": 95
        },
        {
            "name": "<p>\n\tParticle pack, upsampled 2x to 1024 x 1024 resolution.\n<\/p>\n",
            "id": 393,
            "title": "Particle Pack",
            "author": {
                "name": "Josh",
                "id": 1,
                "photoUrl": "\/\/leadwerksstorage.s3.us-east-2.amazonaws.com\/monthly_2025_02\/Josh_Klint.webp.f1ce2f18c3a16edf14de51bd58cc2039.webp",
                "profileUrl": "https:\/\/www.leadwerks.com\/community\/profile\/1-josh\/"
            },
            "category": 127
        },
        {
            "name": "<p>\n\tThis conveyer belt model includes animated texture scrolling in the material.\n<\/p>\n",
            "id": 394,
            "title": "Conveyer Belt",
            "author": {
                "name": "Josh",
                "id": 1,
                "photoUrl": "\/\/leadwerksstorage.s3.us-east-2.amazonaws.com\/monthly_2025_02\/Josh_Klint.webp.f1ce2f18c3a16edf14de51bd58cc2039.webp",
                "profileUrl": "https:\/\/www.leadwerks.com\/community\/profile\/1-josh\/"
            },
            "category": 107
        },
        {
            "name": "<p>\n\tHere is a scene I threw together quickly for promotion of the release of version 0.9.7.\n<\/p>\n\n<p>\n\tThese models were used:<br>\n\t<a href=\"https:\/\/sketchfab.com\/3d-models\/rusty-motorbike-2633c99a142a4f7eafbdfaa2328d9041\" rel=\"external nofollow\" style=\"background-color:#1e2429;font-size:13px;\">https:\/\/sketchfab.com\/3d-models\/rusty-motorbike-2633c99a142a4f7eafbdfaa2328d9041<\/a><br style=\"background-color:#1e2429;color:#eeeeee;font-size:13px;\">\n\t<a href=\"https:\/\/sketchfab.com\/3d-models\/graffiti-alley-9ae97131c3d44cffaf0113d48a8798b3\" rel=\"external nofollow\" style=\"background-color:#1e2429;font-size:13px;\">https:\/\/sketchfab.com\/3d-models\/graffiti-alley-9ae97131c3d44cffaf0113d48a8798b3<\/a>\n<\/p>\n",
            "id": 395,
            "title": "Graffiti Alley",
            "author": {
                "name": "Josh",
                "id": 1,
                "photoUrl": "\/\/leadwerksstorage.s3.us-east-2.amazonaws.com\/monthly_2025_02\/Josh_Klint.webp.f1ce2f18c3a16edf14de51bd58cc2039.webp",
                "profileUrl": "https:\/\/www.leadwerks.com\/community\/profile\/1-josh\/"
            },
            "category": 111
        },
        {
            "name": "<p>\n\tThis highly folded red and bloody texture looks like intestines, organs or flesh.\n<\/p>\n\n<p>\n\tVeins and reddish spots can be found on the surface.\n<\/p>\n\n<p>\n\tIt is a remarkable material for texturing monsters and aliens.\n<\/p>\n\n<p>\n\tThis is a seamless and tileable PBR CG texture for 3D artists.\n<\/p>\n\n<p>\n\tEach package usually includes a Base Color Map \/ Diffuse Map, Normal Map, Roughness Map, Displacement Map, Metallic Map (Metals Only) and Ambient Occlusion Map.\n<\/p>\n",
            "id": 397,
            "title": "Bloody Organ, Intestine or Flesh Texture",
            "author": {
                "name": "Josh",
                "id": 1,
                "photoUrl": "\/\/leadwerksstorage.s3.us-east-2.amazonaws.com\/monthly_2025_02\/Josh_Klint.webp.f1ce2f18c3a16edf14de51bd58cc2039.webp",
                "profileUrl": "https:\/\/www.leadwerks.com\/community\/profile\/1-josh\/"
            },
            "category": 120
        },
        {
            "name": "<p>\n\tThis item template for Visual Studio will make it easier to add a new object to your project.\u00a0\n<\/p>\n\n<p>\n\tPlace the zip file (Don't extract) to: <em>USER\\Documents\\Visual Studio 2022\\Templates\\ItemTemplates\\Visual C++<\/em>\u00a0and restart Visual Studio.\n<\/p>\n\n<p>\n\tUltraObjectTemplate.zip\n<\/p>\n",
            "id": 451,
            "title": "Visual Studio Item Template: Objects",
            "author": {
                "name": "reepblue",
                "id": 12469,
                "photoUrl": "\/\/leadwerksstorage.s3.us-east-2.amazonaws.com\/monthly_2019_01\/profilepic.jpeg.78031c0b756c2bf68048cf8e7cab27d2.jpeg",
                "profileUrl": "https:\/\/www.leadwerks.com\/community\/profile\/12469-reepblue\/"
            },
            "category": 104
        },
        {
            "name": "<p>\n\tThis item template for Visual Studio will make it easier to add a new component to your project.\u00a0\n<\/p>\n\n<p>\n\tPlace the zip file (Don't extract) to: <em>USER\\Documents\\Visual Studio 2022\\Templates\\ItemTemplates\\Visual C++<\/em>\u00a0and restart Visual Studio.\n<\/p>\n\n<p>\n\t\u00a0\n<\/p>\n\n<p>\n\tUltraCompnentTemplate.zip\n<\/p>\n",
            "id": 452,
            "title": "Visual Studio Item Template: Components",
            "author": {
                "name": "reepblue",
                "id": 12469,
                "photoUrl": "\/\/leadwerksstorage.s3.us-east-2.amazonaws.com\/monthly_2019_01\/profilepic.jpeg.78031c0b756c2bf68048cf8e7cab27d2.jpeg",
                "profileUrl": "https:\/\/www.leadwerks.com\/community\/profile\/12469-reepblue\/"
            },
            "category": 104
        },
        {
            "name": "<p>\n\tHere are some models used for an underground scene.\n<\/p>\n",
            "id": 928,
            "title": "Underground",
            "author": {
                "name": "Josh",
                "id": 1,
                "photoUrl": "\/\/leadwerksstorage.s3.us-east-2.amazonaws.com\/monthly_2025_02\/Josh_Klint.webp.f1ce2f18c3a16edf14de51bd58cc2039.webp",
                "profileUrl": "https:\/\/www.leadwerks.com\/community\/profile\/1-josh\/"
            },
            "category": 106
        },
        {
            "name": "Aerial Asphalt 01 PBR material<p><\/p>CC0 Public Domain",
            "id": 981,
            "title": "Aerial Asphalt 01",
            "author": {
                "name": "CC0 Game Assets",
                "id": 29120,
                "photoUrl": "\/\/leadwerksstorage.s3.us-east-2.amazonaws.com\/monthly_2024_10\/zero.xlarge.png.f5099c6adba9fe909014c7725970d0f6.png",
                "profileUrl": "https:\/\/www.leadwerks.com\/community\/profile\/29120-cc0-game-assets\/"
            },
            "category": 121
        },
        {
            "name": "Aerial Beach 01 PBR material<p><\/p>CC0 Public Domain",
            "id": 982,
            "title": "Aerial Beach 01",
            "author": {
                "name": "CC0 Game Assets",
                "id": 29120,
                "photoUrl": "\/\/leadwerksstorage.s3.us-east-2.amazonaws.com\/monthly_2024_10\/zero.xlarge.png.f5099c6adba9fe909014c7725970d0f6.png",
                "profileUrl": "https:\/\/www.leadwerks.com\/community\/profile\/29120-cc0-game-assets\/"
            },
            "category": 122
        },
        {
            "name": "Aerial Beach 02 PBR material<p><\/p>CC0 Public Domain",
            "id": 983,
            "title": "Aerial Beach 02",
            "author": {
                "name": "CC0 Game Assets",
                "id": 29120,
                "photoUrl": "\/\/leadwerksstorage.s3.us-east-2.amazonaws.com\/monthly_2024_10\/zero.xlarge.png.f5099c6adba9fe909014c7725970d0f6.png",
                "profileUrl": "https:\/\/www.leadwerks.com\/community\/profile\/29120-cc0-game-assets\/"
            },
            "category": 122
        },
        {
            "name": "Aerial Beach 03 PBR material<p><\/p>CC0 Public Domain",
            "id": 984,
            "title": "Aerial Beach 03",
            "author": {
                "name": "CC0 Game Assets",
                "id": 29120,
                "photoUrl": "\/\/leadwerksstorage.s3.us-east-2.amazonaws.com\/monthly_2024_10\/zero.xlarge.png.f5099c6adba9fe909014c7725970d0f6.png",
                "profileUrl": "https:\/\/www.leadwerks.com\/community\/profile\/29120-cc0-game-assets\/"
            },
            "category": 122
        },
        {
            "name": "Aerial Grass Rock PBR material<p><\/p>CC0 Public Domain",
            "id": 985,
            "title": "Aerial Grass Rock",
            "author": {
                "name": "CC0 Game Assets",
                "id": 29120,
                "photoUrl": "\/\/leadwerksstorage.s3.us-east-2.amazonaws.com\/monthly_2024_10\/zero.xlarge.png.f5099c6adba9fe909014c7725970d0f6.png",
                "profileUrl": "https:\/\/www.leadwerks.com\/community\/profile\/29120-cc0-game-assets\/"
            },
            "category": 109
        },
        {
            "name": "Aerial Ground Rock PBR material<p><\/p>CC0 Public Domain",
            "id": 986,
            "title": "Aerial Ground Rock",
            "author": {
                "name": "CC0 Game Assets",
                "id": 29120,
                "photoUrl": "\/\/leadwerksstorage.s3.us-east-2.amazonaws.com\/monthly_2024_10\/zero.xlarge.png.f5099c6adba9fe909014c7725970d0f6.png",
                "profileUrl": "https:\/\/www.leadwerks.com\/community\/profile\/29120-cc0-game-assets\/"
            },
            "category": 109
        },
        {
            "name": "Aerial Mud 1 PBR material<p><\/p>CC0 Public Domain",
            "id": 987,
            "title": "Aerial Mud 1",
            "author": {
                "name": "CC0 Game Assets",
                "id": 29120,
                "photoUrl": "\/\/leadwerksstorage.s3.us-east-2.amazonaws.com\/monthly_2024_10\/zero.xlarge.png.f5099c6adba9fe909014c7725970d0f6.png",
                "profileUrl": "https:\/\/www.leadwerks.com\/community\/profile\/29120-cc0-game-assets\/"
            },
            "category": 125
        },
        {
            "name": "Aerial Rocks 01 PBR material<p><\/p>CC0 Public Domain",
            "id": 988,
            "title": "Aerial Rocks 01",
            "author": {
                "name": "CC0 Game Assets",
                "id": 29120,
                "photoUrl": "\/\/leadwerksstorage.s3.us-east-2.amazonaws.com\/monthly_2024_10\/zero.xlarge.png.f5099c6adba9fe909014c7725970d0f6.png",
                "profileUrl": "https:\/\/www.leadwerks.com\/community\/profile\/29120-cc0-game-assets\/"
            },
            "category": 109
        }
    ]
}